Machine-Learning Julia - 3 Kmeans clustering on Digits
…
3. describe df

schema(df)

┌───────┬────────────┬─────────┐
│ names │ scitypes   │ types   │
├───────┼────────────┼─────────┤
│ x1    │ Continuous │ Float64 │
│ x2    │ Continuous │ Float64 │
│ x3    │ Continuous │ Float64 │
│ x4    │ Continuous │ Float64 │
│ x5    │ Continuous │ Float64 │
│ x6    │ Continuous │ Float64 │
│ x7    │ Continuous │ Float64 │
│ x8    │ Continuous │ Float64 │
│ x9    │ Continuous │ Float64 │
│ x10   │ Continuous │ Float64 │
│ x11   │ Continuous │ Float64 │
│ x12   │ Continuous │ Float64 │
│ x13   │ Continuous │ Float64 │
│ x14   │ Continuous │ Float64 │
│ x15   │ Continuous │ Float64 │
│ x16   │ Continuous │ Float64 │
│ x17   │ Continuous │ Float64 │
│ x18   │ Continuous │ Float64 │
│ x19   │ Continuous │ Float64 │
│ x20   │ Continuous │ Float64 │
│ x21   │ Continuous │ Float64 │
│ x22   │ Continuous │ Float64 │
│   ⋮   │     ⋮      │    ⋮    │
└───────┴────────────┴─────────┘
                 43 rows omitted
…
