Machine-Learning Julia - 1 Diabetes CatBoost Classification
…
4. split data

y, X =  unpack(df, ==(:outcome), rng=123);
#schema(X)
(Xtrain, Xtest), (ytrain, ytest)  = partition((X, y), 0.7, multi=true,  rng=123)

((538×8 DataFrame
 Row │ pregnancies  glucose  blood_pressure  skin_thickness  insulin  b_m_i    ⋯
     │ Int64        Float64  Float64         Float64         Float64  Float64  ⋯
─────┼──────────────────────────────────────────────────────────────────────────
   1 │           0    126.0            86.0            27.0    120.0     27.4  ⋯
   2 │           0    120.0            74.0            18.0     63.0     30.5
   3 │           4     99.0            76.0            15.0     51.0     23.2
   4 │           2    118.0            80.0             0.0      0.0     42.9
   5 │           1     86.0            66.0            52.0     65.0     41.3  ⋯
   6 │           3    191.0            68.0            15.0    130.0     30.9
   7 │           2    108.0            62.0            10.0    278.0     25.3
   8 │           6     99.0            60.0            19.0     54.0     26.9
   9 │          11    143.0            94.0            33.0    146.0     36.6  ⋯
  10 │           5    112.0            66.0             0.0      0.0     37.8
  11 │           3    125.0            58.0             0.0      0.0     31.6
  ⋮  │      ⋮          ⋮           ⋮               ⋮            ⋮        ⋮     ⋱
 529 │           3     88.0            58.0            11.0     54.0     24.8
 530 │           0    188.0            82.0            14.0    185.0     32.0  ⋯
 531 │           4    110.0            66.0             0.0      0.0     31.9
 532 │           0     67.0            76.0             0.0      0.0     45.3
 533 │           0    125.0            68.0             0.0      0.0     24.7
 534 │           7    196.0            90.0             0.0      0.0     39.8  ⋯
 535 │           3    150.0            76.0             0.0      0.0     21.0
 536 │           6     87.0            80.0             0.0      0.0     23.2
 537 │           0    146.0            70.0             0.0      0.0     37.9
 538 │           0     78.0            88.0            29.0     40.0     36.9  ⋯
                                                  2 columns and 517 rows omitted, 230×8 DataFrame
…
