Machine-Learning Julia - 2-Mnist Classification
…
4. split data

y, X= unpack(df, ==(:label), rng=123);
cat=y|>levels
(Xtrain, Xtest), (ytrain, ytest)  = partition((X, y), 0.2, multi=true,shuffle=true)

((12000×784 DataFrame
   Row │ 1x1    1x2    1x3    1x4    1x5    1x6    1x7    1x8    1x9    1x10   ⋯
       │ Int64  Int64  Int64  Int64  Int64  Int64  Int64  Int64  Int64  Int64  ⋯
───────┼────────────────────────────────────────────────────────────────────────
     1 │     0      0      0      0      0      0      0      0      0      0  ⋯
     2 │     0      0      0      0      0      0      0      0      0      0
     3 │     0      0      0      0      0      0      0      0      0      0
     4 │     0      0      0      0      0      0      0      0      0      0
     5 │     0      0      0      0      0      0      0      0      0      0  ⋯
     6 │     0      0      0      0      0      0      0      0      0      0
     7 │     0      0      0      0      0      0      0      0      0      0
     8 │     0      0      0      0      0      0      0      0      0      0
     9 │     0      0      0      0      0      0      0      0      0      0  ⋯
    10 │     0      0      0      0      0      0      0      0      0      0
    11 │     0      0      0      0      0      0      0      0      0      0
   ⋮   │   ⋮      ⋮      ⋮      ⋮      ⋮      ⋮      ⋮      ⋮      ⋮      ⋮    ⋱
 11991 │     0      0      0      0      0      0      0      0      0      0
 11992 │     0      0      0      0      0      0      0      0      0      0  ⋯
 11993 │     0      0      0      0      0      0      0      0      0      0
 11994 │     0      0      0      0      0      0      0      0      0      0
 11995 │     0      0      0      0      0      0      0      0      0      0
 11996 │     0      0      0      0      0      0      0      0      0      0  ⋯
 11997 │     0      0      0      0      0      0      0      0      0      0
 11998 │     0      0      0      0      0      0      0      0      0      0
 11999 │     0      0      0      0      0      0      0      0      0      0
 12000 │     0      0      0      0      0      0      0      0      0      0  ⋯
                                              774 columns and 11979 rows omitted, 48000×784 DataFrame
…
