Machine-Learning Julia - 5-mnist-pca-svm
…
3. data split

ytrain, Xtrain=  unpack(df, ==(:label), rng=123);
(Xtrain, Xtest), (ytrain, ytest)  = partition((Xtrain, ytrain), 0.7, multi=true,shuffle=true)

((42000×784 DataFrame
   Row │ 1x1    1x2    1x3    1x4    1x5    1x6    1x7    1x8    1x9    1x10   ⋯
       │ Int64  Int64  Int64  Int64  Int64  Int64  Int64  Int64  Int64  Int64  ⋯
───────┼────────────────────────────────────────────────────────────────────────
     1 │     0      0      0      0      0      0      0      0      0      0  ⋯
     2 │     0      0      0      0      0      0      0      0      0      0
     3 │     0      0      0      0      0      0      0      0      0      0
     4 │     0      0      0      0      0      0      0      0      0      0
     5 │     0      0      0      0      0      0      0      0      0      0  ⋯
     6 │     0      0      0      0      0      0      0      0      0      0
     7 │     0      0      0      0      0      0      0      0      0      0
     8 │     0      0      0      0      0      0      0      0      0      0
     9 │     0      0      0      0      0      0      0      0      0      0  ⋯
    10 │     0      0      0      0      0      0      0      0      0      0
    11 │     0      0      0      0      0      0      0      0      0      0
   ⋮   │   ⋮      ⋮      ⋮      ⋮      ⋮      ⋮      ⋮      ⋮      ⋮      ⋮    ⋱
 41991 │     0      0      0      0      0      0      0      0      0      0
 41992 │     0      0      0      0      0      0      0      0      0      0  ⋯
 41993 │     0      0      0      0      0      0      0      0      0      0
 41994 │     0      0      0      0      0      0      0      0      0      0
 41995 │     0      0      0      0      0      0      0      0      0      0
 41996 │     0      0      0      0      0      0      0      0      0      0  ⋯
 41997 │     0      0      0      0      0      0      0      0      0      0
 41998 │     0      0      0      0      0      0      0      0      0      0
 41999 │     0      0      0      0      0      0      0      0      0      0
 42000 │     0      0      0      0      0      0      0      0      0      0  ⋯
                                              774 columns and 41979 rows omitted, 18000×784 DataFrame
…
