Machine-Learning Julia - Build first MLJ machine learning model
…
for species need transform to Categorical type

df.species= coerce(df.species,Multiclass);
schema(df)

┌──────────────┬───────────────┬────────────────────────────────────┐
│ names        │ scitypes      │ types                              │
├──────────────┼───────────────┼────────────────────────────────────┤
│ sepal_length │ Continuous    │ Float64                            │
│ sepal_width  │ Continuous    │ Float64                            │
│ petal_length │ Continuous    │ Float64                            │
│ petal_width  │ Continuous    │ Float64                            │
│ species      │ Multiclass{3} │ CategoricalValue{String15, UInt32} │
└──────────────┴───────────────┴────────────────────────────────────┘

now we need to split data

y, X = unpack(df, ==(:species); rng=123)

(CategoricalArrays.CategoricalValue{String15, UInt32}[String15("virginica"), String15("versicolor"), String15("virginica"), String15("setosa"), String15("versicolor"), String15("virginica"), String15("setosa"), String15("versicolor"), String15("setosa"), String15("virginica")  …  String15("virginica"), String15("virginica"), String15("virginica"), String15("versicolor"), String15("virginica"), String15("setosa"), String15("virginica"), String15("virginica"), String15("setosa"), String15("setosa")], 150×4 DataFrame
 Row │ sepal_length  sepal_width  petal_length  petal_width 
     │ Float64       Float64      Float64       Float64     
─────┼──────────────────────────────────────────────────────
   1 │          6.7          3.3           5.7          2.1
   2 │          5.7          2.8           4.1          1.3
   3 │          7.2          3.0           5.8          1.6
   4 │          4.4          2.9           1.4          0.2
   5 │          5.6          2.5           3.9          1.1
   6 │          6.5          3.0           5.2          2.0
   7 │          4.4          3.0           1.3          0.2
   8 │          6.1          2.9           4.7          1.4
   9 │          5.4          3.9           1.7          0.4
  10 │          4.9          2.5           4.5          1.7
  11 │          6.3          2.5           4.9          1.5
  ⋮  │      ⋮             ⋮            ⋮             ⋮
 141 │          6.4          2.7           5.3          1.9
 142 │          6.8          3.2           5.9          2.3
 143 │          6.9          3.1           5.4          2.1
 144 │          6.1          2.8           4.0          1.3
 145 │          6.7          2.5           5.8          1.8
 146 │          5.0          3.5           1.3          0.3
 147 │          7.6          3.0           6.6          2.1
 148 │          6.3          2.5           5.0          1.9
 149 │          5.1          3.8           1.6          0.2
 150 │          5.0          3.6           1.4          0.2
                                            129 rows omitted)
…
