Machine-Learning Julia - 5 texture data pca
…
3. describe df

schema(df)

┌───────┬────────────┬─────────┐
│ names │ scitypes   │ types   │
├───────┼────────────┼─────────┤
│ a1    │ Continuous │ Float64 │
│ a2    │ Continuous │ Float64 │
│ a3    │ Continuous │ Float64 │
│ a4    │ Continuous │ Float64 │
│ a5    │ Continuous │ Float64 │
│ a6    │ Continuous │ Float64 │
│ a7    │ Continuous │ Float64 │
│ a8    │ Continuous │ Float64 │
│ a9    │ Continuous │ Float64 │
│ a10   │ Continuous │ Float64 │
│ a11   │ Continuous │ Float64 │
│ a12   │ Continuous │ Float64 │
│ a13   │ Continuous │ Float64 │
│ a14   │ Continuous │ Float64 │
│ a15   │ Continuous │ Float64 │
│ a16   │ Continuous │ Float64 │
│ a17   │ Continuous │ Float64 │
│ a18   │ Continuous │ Float64 │
│ a19   │ Continuous │ Float64 │
│ a20   │ Continuous │ Float64 │
│ a21   │ Continuous │ Float64 │
│ a22   │ Continuous │ Float64 │
│   ⋮   │     ⋮      │    ⋮    │
└───────┴────────────┴─────────┘
                 19 rows omitted
…
